Retrieve Information Published on J-STAGE • jstager
…
write_jstage_to_excel(d2, "results.xlsx")

論文のメタデータの取得

d4 <- jstage_metadata(d2$entry$DOI[8], pdf_path = ".", bibtex_path = ".")

Zotero ユーザーは，J-STAGE の情報を Zotero Connector 経由で登録する際に，著者名の姓と名が逆になるという問題を経験したことがあるはずです。 この問題は BibTeX を経由することで回避できます。

論文の引用文献リストの取得

d5 <- jstage_references("10.1241/johokanri.49.63", depth = 2)
#> 階層 1 の 1 件中 1 件目を処理中...階層 2 の 5 件中 1 件目を処理中...階層 2 の 5 件中 2 件目を処理中...階層 2 の 5 件中 3 件目を処理中...階層 2 の 5 件中 4 件目を処理中...階層 2 の 5 件中 5 件目を処理中...

d5
#> # A tibble: 41 × 4
#>    citing_doi               cited_doi                article_link          depth
#>    <chr>                    <chr>                    <chr>                 <dbl>
#>  1 10.1241/johokanri.49.63  10.1241/johokanri.42.682 http://www.jstage.js…     1
#>  2 10.1241/johokanri.49.63  10.1241/johokanri.46.536 http://www.jstage.js…     1
#>  3 10.1241/johokanri.49.63  10.1241/johokanri.48.149 http://www.jstage.js…     1
#>  4 10.1241/johokanri.49.63  10.1241/johokanri.49.69  http://www.jstage.js…     1
#>  5 10.1241/johokanri.49.63  10.18919/jkg.56.4_188    https://www.jstage.j…     1
#>  6 10.1241/johokanri.42.682 10.1241/johokanri.41.343 http://www.jstage.js…     2
#>  7 10.1241/johokanri.42.682 10.11291/jpla1956.44.137 http://www.jstage.js…     2
#>  8 10.1241/johokanri.42.682 10.18919/jkg.49.6_295    https://www.jstage.j…     2
#>  9 10.1241/johokanri.42.682 10.11291/jpla1956.44.266 http://www.jstage.js…     2
#> 10 10.1241/johokanri.42.682 10.1241/johokanri.41.445 http://www.jstage.js…     2
#> # ℹ 31 more rows
…
